%YAML 1.1
%TAG !u! tag:unity3d.com,2011:
--- !u!114 &11400000
MonoBehaviour:
  m_ObjectHideFlags: 0
  m_CorrespondingSourceObject: {fileID: 0}
  m_PrefabInstance: {fileID: 0}
  m_PrefabAsset: {fileID: 0}
  m_GameObject: {fileID: 0}
  m_Enabled: 1
  m_EditorHideFlags: 0
  m_Script: {fileID: 11500000, guid: 61a0062fafbabff4c901ca4d8b1f474d, type: 3}
  m_Name: Parts
  m_EditorClassIdentifier: 
  map: {fileID: 2800000, guid: 34fd21c2249845048b5769cace3a7aec, type: 3}
  partColors:
  - {r: 1, g: 0.050980397, b: 0.050980397, a: 0}
  - {r: 0, g: 1, b: 1, a: 0}
  - {r: 0, g: 1, b: 0, a: 0}
  - {r: 1, g: 0, b: 1, a: 0}
  - {r: 0, g: 0, b: 1, a: 0}
  partNames:
  - Beard
  - Mustache
  - Eye brows
  - Nose Hair
  - Ear Hair
