%YAML 1.1
%TAG !u! tag:unity3d.com,2011:
--- !u!114 &11400000
MonoBehaviour:
  m_ObjectHideFlags: 0
  m_CorrespondingSourceObject: {fileID: 0}
  m_PrefabInstance: {fileID: 0}
  m_PrefabAsset: {fileID: 0}
  m_GameObject: {fileID: 0}
  m_Enabled: 1
  m_EditorHideFlags: 0
  m_Script: {fileID: 11500000, guid: 77d8488b869e1b94388434b14be4a374, type: 3}
  m_Name: 01 - Clean Shave
  m_EditorClassIdentifier: 
  title: Clean Shave
  description: Don't cut the eyebrows!
  map: {fileID: 2800000, guid: c6503f9a8e122f84793b80015532ece6, type: 3}
